<svg xmlns="http://www.w3.org/2000/svg" width="108" height="108" viewBox="0 0 108 108">
<g transform="translate(18, 18)"><!-- visible -->
<g transform="translate(36 48) scale(0.00439453125 -0.00439453125) translate(-1128.5 0)">
	<g><!-- T advance 1267 --><path d="M1251 1034h-69q-9 36 -32.5 85.5t-52.5 93.5q-30 46 -65.5 80.5t-68.5 39.5q-31 4 -78 6t-87 2h-58v-1135q0 -33 14 -60.5t49 -42.5q18 -7 75.5 -19t89.5 -13v-71h-670v71q28 2 85.5 8t79.5 15q33 13 48.5 37.5t15.5 65.5v1144h-58q-31 0 -77 -1.5t-88 -6.5q-33 -4 -68.5 -39.5t-65.5 -80.5t-53 -95.5t-32 -83.5h-70v385h1236v-385z" /></g>
	<g transform="translate(1267)"><!-- e advance 990 --><path d="M948 232q-62 -118 -166 -188t-239 -70q-119 0 -208.5 42t-147.5 114t-86.5 168t-28.5 203q0 96 30.5 188.5t89.5 166.5q57 71 141.5 114.5t189.5 43.5q108 0 185 -34t125 -93q46 -56 68.5 -132t22.5 -165v-66h-653q0 -97 18.5 -176t58.5 -139q39 -58 102 -91.5t150 -33.5q89 0 153.5 41.5t124.5 149.5zM727 608q0 56 -9.5 120t-30.5 107q-23 46 -63 75t-103 29q-105 0 -174.5 -87.5t-75.5 -243.5h456z" /></g>
</g>
</g>
</svg>
